"McDonald's","(39.953683,-75.166840)","McDonald's","(39.954566,-75.163625)","0.18087945350076484"
"McDonald's","(39.954216,-75.202352)","McDonald's","(39.949926,-75.169572)","1.7613380041974451"
"McDonald's","(39.939379,-75.166758)","McDonald's","(39.949926,-75.169572)","0.7438174541172371"
"McDonald's","(39.951278,-75.156638)","McDonald's","(39.954566,-75.163625)","0.4342350858379104"
"McDonald's","(39.954566,-75.163625)","McDonald's","(39.953683,-75.166840)","0.18087945350076484"
"McDonald's","(39.999619,-75.229590)","McDonald's","(39.954216,-75.202352)","3.452664438365178"
"McDonald's","(39.949926,-75.169572)","McDonald's","(39.953683,-75.166840)","0.29719154723031327"
"McDonald's","(39.943921,-75.117453)","McDonald's","(39.951278,-75.156638)","2.136937414105162"
"McDonald's","(39.913988,-75.151082)","McDonald's","(39.939379,-75.166758)","1.941041770330712"
"McDonald's","(39.971673,-75.159190)","McDonald's","(39.954566,-75.163625)","1.2050896989905244"
"McDonald's","(39.953683,-75.166840)","KFC","(39.952136,-75.155911)","0.588641597421041"
"McDonald's","(39.954216,-75.202352)","KFC","(39.946200,-75.237900)","1.9626471206409426"
"McDonald's","(39.939379,-75.166758)","KFC","(39.952136,-75.155911)","1.0521613154126968"
"McDonald's","(39.951278,-75.156638)","KFC","(39.952136,-75.155911)","0.07069024337975477"
"McDonald's","(39.954566,-75.163625)","KFC","(39.952136,-75.155911)","0.44172284770553294"
"McDonald's","(39.999619,-75.229590)","KFC","(39.983388,-75.243813)","1.3507467836174467"
"McDonald's","(39.949926,-75.169572)","KFC","(39.952136,-75.155911)","0.7395126167403994"
"McDonald's","(39.943921,-75.117453)","KFC","(39.952136,-75.155911)","2.1146769125626594"
"McDonald's","(39.913988,-75.151082)","KFC","(39.952136,-75.155911)","2.648163519363565"
"McDonald's","(39.971673,-75.159190)","KFC","(39.971690,-75.159595)","0.021477126905156407"
"McDonald's","(39.953683,-75.166840)","CVS","(39.950680,-75.164460)","0.24277928728529227"
"McDonald's","(39.954216,-75.202352)","CVS","(39.954150,-75.202004)","0.01898725740022098"
"McDonald's","(39.939379,-75.166758)","CVS","(39.943048,-75.160036)","0.43711091087650067"
"McDonald's","(39.951278,-75.156638)","CVS","(39.951420,-75.158180)","0.08226126135593441"
"McDonald's","(39.954566,-75.163625)","CVS","(39.950680,-75.164460)","0.27211505798278524"
"McDonald's","(39.999619,-75.229590)","CVS","(39.953510,-75.209680)","3.3557085119462595"
"McDonald's","(39.949926,-75.169572)","CVS","(39.951640,-75.171760)","0.16569712018664962"
"McDonald's","(39.943921,-75.117453)","CVS","(39.951420,-75.158180)","2.2186252234357906"
"McDonald's","(39.913988,-75.151082)","CVS","(39.943048,-75.160036)","2.063141843038669"
"McDonald's","(39.971673,-75.159190)","CVS","(39.967015,-75.176190)","0.9559928103036499"
"McDonald's","(39.953683,-75.166840)","Subway","(39.956246,-75.167830)","0.18468600593005194"
"McDonald's","(39.954216,-75.202352)","Subway","(39.950596,-75.177460)","1.3419327449760474"
"McDonald's","(39.939379,-75.166758)","Subway","(39.942944,-75.160396)","0.41744026094040704"
"McDonald's","(39.951278,-75.156638)","Subway","(39.950681,-75.152646)","0.21542859902149372"
"McDonald's","(39.954566,-75.163625)","Subway","(39.956246,-75.167830)","0.25114474870349335"
"McDonald's","(39.999619,-75.229590)","Subway","(39.979049,-75.160072)","3.944977950183087"
"McDonald's","(39.949926,-75.169572)","Subway","(39.954468,-75.170805)","0.320545492809401"
"McDonald's","(39.943921,-75.117453)","Subway","(39.950681,-75.152646)","1.9217769309632295"
"McDonald's","(39.913988,-75.151082)","Subway","(39.922432,-75.169679)","1.145241744866318"
"McDonald's","(39.971673,-75.159190)","Subway","(39.979049,-75.160072)","0.5117682694638757"
"McDonald's","(39.953683,-75.166840)","StarBucks","(39.954740,-75.166650)","0.07372179985881173"
"McDonald's","(39.954216,-75.202352)","StarBucks","(39.954549,-75.192364)","0.5295043016114637"
"McDonald's","(39.939379,-75.166758)","StarBucks","(39.949652,-75.167362)","0.7105174659109165"
"McDonald's","(39.951278,-75.156638)","StarBucks","(39.950125,-75.157160)","0.08432625157688546"
"McDonald's","(39.954566,-75.163625)","StarBucks","(39.954740,-75.166650)","0.16066582322345827"
"McDonald's","(39.999619,-75.229590)","StarBucks","(39.954549,-75.192364)","3.6853791386813346"
"McDonald's","(39.949926,-75.169572)","StarBucks","(39.949652,-75.167362)","0.11857925070620487"
"McDonald's","(39.943921,-75.117453)","StarBucks","(39.952037,-75.145176)","1.571884997988711"
"McDonald's","(39.913988,-75.151082)","StarBucks","(39.941686,-75.149034)","1.9168235512786571"
"McDonald's","(39.971673,-75.159190)","StarBucks","(39.954740,-75.166650)","1.234858900988294"
"McDonald's","(39.953683,-75.166840)","Walmart","(40.031400,-75.102800)","6.350243194735786"
"McDonald's","(39.954216,-75.202352)","Walmart","(40.031400,-75.102800)","7.497311602495288"
"McDonald's","(39.939379,-75.166758)","Walmart","(40.031400,-75.102800)","7.203421812339112"
"McDonald's","(39.951278,-75.156638)","Walmart","(40.031400,-75.102800)","6.226422628522729"
"McDonald's","(39.954566,-75.163625)","Walmart","(40.031400,-75.102800)","6.2087929214645285"
"McDonald's","(39.999619,-75.229590)","Walmart","(40.081864,-75.168736)","6.530983412051967"
"McDonald's","(39.949926,-75.169572)","Walmart","(40.031400,-75.102800)","6.647017757573554"
"McDonald's","(39.943921,-75.117453)","Walmart","(40.031400,-75.102800)","6.093796295841719"
"McDonald's","(39.913988,-75.151082)","Walmart","(39.832262,-75.129026)","5.766577782036266"
"McDonald's","(39.971673,-75.159190)","Walmart","(40.031400,-75.102800)","5.092908021397868"
"McDonald's","(39.953683,-75.166840)","Wendys","(39.951163,-75.165788)","0.18281374687091104"
"McDonald's","(39.954216,-75.202352)","Wendys","(39.951163,-75.165788)","1.948077058007028"
"McDonald's","(39.939379,-75.166758)","Wendys","(39.948874,-75.159064)","0.772334872359735"
"McDonald's","(39.951278,-75.156638)","Wendys","(39.948874,-75.159064)","0.21000314291691732"
"McDonald's","(39.954566,-75.163625)","Wendys","(39.951163,-75.165788)","0.26155028229979416"
"McDonald's","(39.999619,-75.229590)","Wendys","(39.996438,-75.237221)","0.45983616268880995"
"McDonald's","(39.949926,-75.169572)","Wendys","(39.951163,-75.165788)","0.21788948992101792"
"McDonald's","(39.943921,-75.117453)","Wendys","(39.948874,-75.159064)","2.230549937430808"
"McDonald's","(39.913988,-75.151082)","Wendys","(39.948874,-75.159064)","2.447210602573641"
"McDonald's","(39.971673,-75.159190)","Wendys","(39.975800,-75.158685)","0.28639952040784794"
"McDonald's","(39.953683,-75.166840)","Arbys","(39.978876,-75.119032)","3.0723349857237965"
"McDonald's","(39.954216,-75.202352)","Arbys","(39.978876,-75.119032)","4.729731131186921"
"McDonald's","(39.939379,-75.166758)","Arbys","(39.978876,-75.119032)","3.719680667002453"
"McDonald's","(39.951278,-75.156638)","Arbys","(39.978876,-75.119032)","2.7571579150175394"
"McDonald's","(39.954566,-75.163625)","Arbys","(39.978876,-75.119032)","2.8978361129008015"
"McDonald's","(39.999619,-75.229590)","Arbys","(39.978876,-75.119032)","6.0255337720796955"
"McDonald's","(39.949926,-75.169572)","Arbys","(39.978876,-75.119032)","3.3412831589232836"
"McDonald's","(39.943921,-75.117453)","Arbys","(39.978876,-75.119032)","2.416607792583434"
"McDonald's","(39.913988,-75.151082)","Arbys","(39.892041,-75.090035)","3.573419253589438"
"McDonald's","(39.971673,-75.159190)","Arbys","(39.978876,-75.119032)","2.1837447532880194"
"McDonald's","(39.953683,-75.166840)","AppleBees","(39.948828,-75.166003)","0.3383654011528244"
"McDonald's","(39.954216,-75.202352)","AppleBees","(39.948828,-75.166003)","1.9609298894533587"
"McDonald's","(39.939379,-75.166758)","AppleBees","(39.948828,-75.166003)","0.6540875944813254"
"McDonald's","(39.951278,-75.156638)","AppleBees","(39.948828,-75.166003)","0.524127904421381"
"McDonald's","(39.954566,-75.163625)","AppleBees","(39.948828,-75.166003)","0.415984640444591"
"McDonald's","(39.999619,-75.229590)","AppleBees","(39.978352,-75.272200)","2.692050224805541"
"McDonald's","(39.949926,-75.169572)","AppleBees","(39.948828,-75.166003)","0.20369686165329484"
"McDonald's","(39.943921,-75.117453)","AppleBees","(39.976317,-75.119568)","2.241151300663681"
"McDonald's","(39.913988,-75.151082)","AppleBees","(39.948828,-75.166003)","2.533700482739669"
"McDonald's","(39.971673,-75.159190)","AppleBees","(39.948828,-75.166003)","1.6191529153279334"
"McDonald's","(39.953683,-75.166840)","Domino's","(39.962348,-75.172930)","0.6800462897827885"
"McDonald's","(39.954216,-75.202352)","Domino's","(39.962348,-75.172930)","1.6564227312053488"
"McDonald's","(39.939379,-75.166758)","Domino's","(39.942223,-75.154529)","0.6769713614281911"
"McDonald's","(39.951278,-75.156638)","Domino's","(39.942223,-75.154529)","0.6355363808627988"
"McDonald's","(39.954566,-75.163625)","Domino's","(39.962348,-75.172930)","0.7293541253226216"
"McDonald's","(39.999619,-75.229590)","Domino's","(39.962348,-75.172930)","3.9535027233167694"
"McDonald's","(39.949926,-75.169572)","Domino's","(39.962348,-75.172930)","0.8765112966866081"
"McDonald's","(39.943921,-75.117453)","Domino's","(39.939380,-75.119217)","0.3273732064133036"
"McDonald's","(39.913988,-75.151082)","Domino's","(39.942223,-75.154529)","1.9593832832492641"
"McDonald's","(39.971673,-75.159190)","Domino's","(39.962348,-75.172930)","0.9718568246916649"
"KFC","(39.952136,-75.155911)","KFC","(39.971690,-75.159595)","1.3650665846353212"
"KFC","(39.971690,-75.159595)","KFC","(39.952136,-75.155911)","1.3650665846353212"
"KFC","(39.939491,-74.973507)","KFC","(39.938174,-75.032744)","3.1394592103885217"
"KFC","(39.938174,-75.032744)","KFC","(39.939491,-74.973507)","3.1394592103885217"
"KFC","(39.983388,-75.243813)","KFC","(39.946200,-75.237900)","2.5884557367568157"
"KFC","(39.878150,-75.115023)","KFC","(39.952136,-75.155911)","5.552220702985851"
"KFC","(39.999602,-75.153511)","KFC","(39.971690,-75.159595)","1.9552464442690747"
"KFC","(39.804144,-75.022094)","KFC","(39.878150,-75.115023)","7.102907255958758"
"KFC","(39.946200,-75.237900)","KFC","(39.983388,-75.243813)","2.5884557367568157"
"KFC","(40.032575,-75.178257)","KFC","(39.999602,-75.153511)","2.6277306861685146"
"KFC","(39.952136,-75.155911)","CVS","(39.951420,-75.158180)","0.12996369606755626"
"KFC","(39.971690,-75.159595)","CVS","(39.967015,-75.176190)","0.9362312465546334"
"KFC","(39.939491,-74.973507)","CVS","(39.951420,-75.158180)","9.81695212706449"
"KFC","(39.938174,-75.032744)","CVS","(39.951420,-75.158180)","6.707253835963078"
"KFC","(39.983388,-75.243813)","CVS","(39.953510,-75.209680)","2.743811815667126"
"KFC","(39.878150,-75.115023)","CVS","(39.943048,-75.160036)","5.079127036633359"
"KFC","(39.999602,-75.153511)","CVS","(39.967015,-75.176190)","2.55167674899762"
"KFC","(39.804144,-75.022094)","CVS","(39.943048,-75.160036)","12.06698635282113"
"KFC","(39.946200,-75.237900)","CVS","(39.953510,-75.209680)","1.57776844587906"
"KFC","(40.032575,-75.178257)","CVS","(39.967015,-75.176190)","4.531085764798333"
"KFC","(39.952136,-75.155911)","Subway","(39.950681,-75.152646)","0.20003236620688528"
"KFC","(39.971690,-75.159595)","Subway","(39.979049,-75.160072)","0.5090853679123578"
"KFC","(39.939491,-74.973507)","Subway","(39.943341,-74.962544)","0.6387773571497944"
"KFC","(39.938174,-75.032744)","Subway","(39.942001,-75.026001)","0.4444296528964476"
"KFC","(39.983388,-75.243813)","Subway","(39.950596,-75.177460)","4.180828698585399"
"KFC","(39.878150,-75.115023)","Subway","(39.922432,-75.169679)","4.213577355734729"
"KFC","(39.999602,-75.153511)","Subway","(39.979049,-75.160072)","1.461933487822716"
"KFC","(39.804144,-75.022094)","Subway","(39.942001,-75.026001)","9.52726480691386"
"KFC","(39.946200,-75.237900)","Subway","(39.950596,-75.177460)","3.2157988393347643"
"KFC","(40.032575,-75.178257)","Subway","(40.081680,-75.168659)","3.430590866997015"
"KFC","(39.952136,-75.155911)","StarBucks","(39.950125,-75.157160)","0.15389196692590082"
"KFC","(39.971690,-75.159595)","StarBucks","(39.954740,-75.166650)","1.2292843726312606"
"KFC","(39.939491,-74.973507)","StarBucks","(39.952037,-75.145176)","9.13464032542307"
"KFC","(39.938174,-75.032744)","StarBucks","(39.952037,-75.145176)","6.032185622242628"
"KFC","(39.983388,-75.243813)","StarBucks","(39.954549,-75.192364)","3.3752844912440443"
"KFC","(39.878150,-75.115023)","StarBucks","(39.941686,-75.149034)","4.7455771377948475"
"KFC","(39.999602,-75.153511)","StarBucks","(39.954740,-75.166650)","3.176774130823557"
"KFC","(39.804144,-75.022094)","StarBucks","(39.941686,-75.149034)","11.64565795012996"
"KFC","(39.946200,-75.237900)","StarBucks","(39.953033,-75.192279)","2.462126097889685"
"KFC","(40.032575,-75.178257)","StarBucks","(39.954740,-75.166650)","5.412868974672282"
"KFC","(39.952136,-75.155911)","Walmart","(40.031400,-75.102800)","6.156096236092535"
"KFC","(39.971690,-75.159595)","Walmart","(40.031400,-75.102800)","5.104549811717122"
"KFC","(39.939491,-74.973507)","Walmart","(39.854691,-75.023854)","6.438311452483374"
"KFC","(39.938174,-75.032744)","Walmart","(39.854691,-75.023854)","5.787344368720129"
"KFC","(39.983388,-75.243813)","Walmart","(39.938644,-75.355761)","6.686268531981217"
"KFC","(39.878150,-75.115023)","Walmart","(39.843806,-75.091716)","2.675602226779317"
"KFC","(39.999602,-75.153511)","Walmart","(40.031400,-75.102800)","3.4681233494648316"
"KFC","(39.804144,-75.022094)","Walmart","(39.854691,-75.023854)","3.4937135649741764"
"KFC","(39.946200,-75.237900)","Walmart","(39.938644,-75.355761)","6.26526751628335"
"KFC","(40.032575,-75.178257)","Walmart","(40.081864,-75.168736)","3.4425666021998365"
"KFC","(39.952136,-75.155911)","Wendys","(39.948874,-75.159064)","0.28051383636736943"
"KFC","(39.971690,-75.159595)","Wendys","(39.975800,-75.158685)","0.28803275911361653"
"KFC","(39.939491,-74.973507)","Wendys","(39.848808,-74.987305)","6.308148157967473"
"KFC","(39.938174,-75.032744)","Wendys","(39.993874,-75.096812)","5.130449752980143"
"KFC","(39.983388,-75.243813)","Wendys","(39.996438,-75.237221)","0.966839348746016"
"KFC","(39.878150,-75.115023)","Wendys","(39.948874,-75.159064)","5.415344813692982"
"KFC","(39.999602,-75.153511)","Wendys","(39.975800,-75.158685)","1.6672148455716462"
"KFC","(39.804144,-75.022094)","Wendys","(39.848808,-74.987305)","3.5959783002475167"
"KFC","(39.946200,-75.237900)","Wendys","(39.956310,-75.258246)","1.2842465817274784"
"KFC","(40.032575,-75.178257)","Wendys","(40.044653,-75.143114)","2.0377334762757404"
"KFC","(39.952136,-75.155911)","Arbys","(39.978876,-75.119032)","2.688391394460623"
"KFC","(39.971690,-75.159595)","Arbys","(39.978876,-75.119032)","2.204364592116839"
"KFC","(39.939491,-74.973507)","Arbys","(39.913845,-74.924176)","3.157840167631161"
"KFC","(39.938174,-75.032744)","Arbys","(39.892041,-75.090035)","4.402042642945586"
"KFC","(39.983388,-75.243813)","Arbys","(39.978876,-75.119032)","6.613663337927945"
"KFC","(39.878150,-75.115023)","Arbys","(39.892041,-75.090035)","1.6359327541824156"
"KFC","(39.999602,-75.153511)","Arbys","(39.978876,-75.119032)","2.3199388545354793"
"KFC","(39.804144,-75.022094)","Arbys","(39.758400,-75.046906)","3.4242020186416604"
"KFC","(39.946200,-75.237900)","Arbys","(39.885258,-75.302449)","5.42504629513107"
"KFC","(40.032575,-75.178257)","Arbys","(39.978876,-75.119032)","4.857017670269069"
"KFC","(39.952136,-75.155911)","AppleBees","(39.948828,-75.166003)","0.5813572813017475"
"KFC","(39.971690,-75.159595)","AppleBees","(39.948828,-75.166003)","1.6156570674457784"
"KFC","(39.939491,-74.973507)","AppleBees","(39.893180,-75.087953)","6.857219286455021"
"KFC","(39.938174,-75.032744)","AppleBees","(39.893180,-75.087953)","4.26902075565276"
"KFC","(39.983388,-75.243813)","AppleBees","(39.978352,-75.272200)","1.5426595744749698"
"KFC","(39.878150,-75.115023)","AppleBees","(39.893180,-75.087953)","1.7714835159779925"
"KFC","(39.999602,-75.153511)","AppleBees","(39.976317,-75.119568)","2.4118708144763352"
"KFC","(39.804144,-75.022094)","AppleBees","(39.893180,-75.087953)","7.07456601708543"
"KFC","(39.946200,-75.237900)","AppleBees","(39.978352,-75.272200)","2.869587562759699"
"KFC","(40.032575,-75.178257)","AppleBees","(40.063237,-75.238229)","3.8144272195129263"
"KFC","(39.952136,-75.155911)","Domino's","(39.942223,-75.154529)","0.6888239723356584"
"KFC","(39.971690,-75.159595)","Domino's","(39.962348,-75.172930)","0.9566984832545274"
"KFC","(39.939491,-74.973507)","Domino's","(39.946369,-75.027278)","2.8877736156819247"
"KFC","(39.938174,-75.032744)","Domino's","(39.946369,-75.027278)","0.6359609489627511"
"KFC","(39.983388,-75.243813)","Domino's","(39.962348,-75.172930)","4.0249294087624925"
"KFC","(39.878150,-75.115023)","Domino's","(39.884203,-75.086881)","1.5496101154986766"
"KFC","(39.999602,-75.153511)","Domino's","(40.017819,-75.148834)","1.2827807448611566"
"KFC","(39.804144,-75.022094)","Domino's","(39.884203,-75.086881)","6.5123209959987"
"KFC","(39.946200,-75.237900)","Domino's","(39.962348,-75.172930)","3.6174339744777675"
"KFC","(40.032575,-75.178257)","Domino's","(40.017819,-75.148834)","1.860892220097015"
"CVS","(40.190148,-75.102893)","CVS","(39.967015,-75.176190)","15.896555466477936"
"CVS","(39.951640,-75.171760)","CVS","(39.950680,-75.164460)","0.39230332829187636"
"CVS","(39.951420,-75.158180)","CVS","(39.950680,-75.164460)","0.3365366067609646"
"CVS","(39.953048,-75.192845)","CVS","(39.954150,-75.202004)","0.491041736894085"
"CVS","(39.947050,-75.166710)","CVS","(39.950680,-75.164460)","0.277684615226535"
"CVS","(39.950680,-75.164460)","CVS","(39.947050,-75.166710)","0.277684615226535"
"CVS","(39.953510,-75.209680)","CVS","(39.954150,-75.202004)","0.40895252073478267"
"CVS","(39.967015,-75.176190)","CVS","(39.951640,-75.171760)","1.087910345987633"
"CVS","(39.943048,-75.160036)","CVS","(39.947050,-75.166710)","0.4488230648755553"
"CVS","(39.954150,-75.202004)","CVS","(39.953510,-75.209680)","0.40895252073478267"
"CVS","(40.190148,-75.102893)","Subway","(40.081680,-75.168659)","8.260438223416028"
"CVS","(39.951640,-75.171760)","Subway","(39.954468,-75.170805)","0.20183699066412958"
"CVS","(39.951420,-75.158180)","Subway","(39.950681,-75.152646)","0.29753093416797866"
"CVS","(39.953048,-75.192845)","Subway","(39.950596,-75.177460)","0.8323062118192879"
"CVS","(39.947050,-75.166710)","Subway","(39.942944,-75.160396)","0.4385750827559047"
"CVS","(39.950680,-75.164460)","Subway","(39.956246,-75.167830)","0.42397663874143754"
"CVS","(39.953510,-75.209680)","Subway","(39.950596,-75.177460)","1.7183932266500175"
"CVS","(39.967015,-75.176190)","Subway","(39.956246,-75.167830)","0.8658217736454747"
"CVS","(39.943048,-75.160036)","Subway","(39.942944,-75.160396)","0.020379088386647686"
"CVS","(39.954150,-75.202004)","Subway","(39.950596,-75.177460)","1.3229748175320852"
"CVS","(40.190148,-75.102893)","StarBucks","(39.952037,-75.145176)","16.603109648583896"
"CVS","(39.951640,-75.171760)","StarBucks","(39.953282,-75.170213)","0.13994636797791324"
"CVS","(39.951420,-75.158180)","StarBucks","(39.950125,-75.157160)","0.1045216322334559"
"CVS","(39.953048,-75.192845)","StarBucks","(39.953033,-75.192279)","0.02999610827057554"
"CVS","(39.947050,-75.166710)","StarBucks","(39.949652,-75.167362)","0.18306813887427364"
"CVS","(39.950680,-75.164460)","StarBucks","(39.950658,-75.161832)","0.13920518481065824"
"CVS","(39.953510,-75.209680)","StarBucks","(39.954549,-75.192364)","0.9199342429757228"
"CVS","(39.967015,-75.176190)","StarBucks","(39.954740,-75.166650)","0.9872011940390049"
"CVS","(39.943048,-75.160036)","StarBucks","(39.950125,-75.157160)","0.5121559641845215"
"CVS","(39.954150,-75.202004)","StarBucks","(39.954549,-75.192364)","0.5113167019590932"
"CVS","(40.190148,-75.102893)","Walmart","(40.136500,-74.967900)","8.034077107287358"
"CVS","(39.951640,-75.171760)","Walmart","(40.031400,-75.102800)","6.610251311997195"
"CVS","(39.951420,-75.158180)","Walmart","(40.031400,-75.102800)","6.25553437460121"
"CVS","(39.953048,-75.192845)","Walmart","(40.031400,-75.102800)","7.212951732395337"
"CVS","(39.947050,-75.166710)","Walmart","(40.031400,-75.102800)","6.73884181939525"
"CVS","(39.950680,-75.164460)","Walmart","(40.031400,-75.102800)","6.462130851385036"
"CVS","(39.953510,-75.209680)","Walmart","(39.938644,-75.355761)","7.805843201610181"
"CVS","(39.967015,-75.176190)","Walmart","(40.031400,-75.102800)","5.905846524023615"
"CVS","(39.943048,-75.160036)","Walmart","(40.031400,-75.102800)","6.815149820217403"
"CVS","(39.954150,-75.202004)","Walmart","(40.031400,-75.102800)","7.4876270221019965"
"CVS","(40.190148,-75.102893)","Wendys","(40.044653,-75.143114)","10.274926083579404"
"CVS","(39.951640,-75.171760)","Wendys","(39.951163,-75.165788)","0.31802697697841265"
"CVS","(39.951420,-75.158180)","Wendys","(39.948874,-75.159064)","0.18203675107636866"
"CVS","(39.953048,-75.192845)","Wendys","(39.951163,-75.165788)","1.4390000494804784"
"CVS","(39.947050,-75.166710)","Wendys","(39.951163,-75.165788)","0.2883469960114397"
"CVS","(39.950680,-75.164460)","Wendys","(39.951163,-75.165788)","0.07785483072342049"
"CVS","(39.953510,-75.209680)","Wendys","(39.951163,-75.165788)","2.3304132342872825"
"CVS","(39.967015,-75.176190)","Wendys","(39.975800,-75.158685)","1.1079629368296067"
"CVS","(39.943048,-75.160036)","Wendys","(39.948874,-75.159064)","0.4058177070678617"
"CVS","(39.954150,-75.202004)","Wendys","(39.951163,-75.165788)","1.9292623186264164"
"CVS","(40.190148,-75.102893)","Arbys","(40.038693,-74.915425)","14.409403642492158"
"CVS","(39.951640,-75.171760)","Arbys","(39.978876,-75.119032)","3.367177456304924"
"CVS","(39.951420,-75.158180)","Arbys","(39.978876,-75.119032)","2.8100698704415197"
"CVS","(39.953048,-75.192845)","Arbys","(39.978876,-75.119032)","4.2968669830614195"
"CVS","(39.947050,-75.166710)","Arbys","(39.978876,-75.119032)","3.3482195796687906"
"CVS","(39.950680,-75.164460)","Arbys","(39.978876,-75.119032)","3.0955814144787954"
"CVS","(39.953510,-75.209680)","Arbys","(39.978876,-75.119032)","5.110193748217043"
"CVS","(39.967015,-75.176190)","Arbys","(39.978876,-75.119032)","3.135485342535878"
"CVS","(39.943048,-75.160036)","Arbys","(39.978876,-75.119032)","3.2929502380452855"
"CVS","(39.954150,-75.202004)","Arbys","(39.978876,-75.119032)","4.714197550993587"
"CVS","(40.190148,-75.102893)","AppleBees","(40.091443,-75.125510)","6.923704193904275"
"CVS","(39.951640,-75.171760)","AppleBees","(39.948828,-75.166003)","0.3615694468472779"
"CVS","(39.951420,-75.158180)","AppleBees","(39.948828,-75.166003)","0.4514088624874045"
"CVS","(39.953048,-75.192845)","AppleBees","(39.948828,-75.166003)","1.45132129992581"
"CVS","(39.947050,-75.166710)","AppleBees","(39.948828,-75.166003)","0.1284293151055603"
"CVS","(39.950680,-75.164460)","AppleBees","(39.948828,-75.166003)","0.15183426074375947"
"CVS","(39.953510,-75.209680)","AppleBees","(39.948828,-75.166003)","2.335924643233419"
"CVS","(39.967015,-75.176190)","AppleBees","(39.948828,-75.166003)","1.3675256469804478"
"CVS","(39.943048,-75.160036)","AppleBees","(39.948828,-75.166003)","0.5093052518191715"
"CVS","(39.954150,-75.202004)","AppleBees","(39.948828,-75.166003)","1.9419682862641992"
"CVS","(40.190148,-75.102893)","Domino's","(40.017819,-75.148834)","12.151811361521995"
"CVS","(39.951640,-75.171760)","Domino's","(39.962348,-75.172930)","0.7424427585198863"
"CVS","(39.951420,-75.158180)","Domino's","(39.942223,-75.154529)","0.6642291043069127"
"CVS","(39.953048,-75.192845)","Domino's","(39.962348,-75.172930)","1.2350475931473714"
"CVS","(39.947050,-75.166710)","Domino's","(39.942223,-75.154529)","0.7263429638144057"
"CVS","(39.950680,-75.164460)","Domino's","(39.942223,-75.154529)","0.7862303051271508"
"CVS","(39.953510,-75.209680)","Domino's","(39.962348,-75.172930)","2.039870627636183"
"CVS","(39.967015,-75.176190)","Domino's","(39.962348,-75.172930)","0.3657638442710836"
"CVS","(39.943048,-75.160036)","Domino's","(39.942223,-75.154529)","0.29723958866955963"
"CVS","(39.954150,-75.202004)","Domino's","(39.962348,-75.172930)","1.6406664120472312"
"Subway","(39.950596,-75.177460)","Subway","(39.954468,-75.170805)","0.4425129244588309"
"Subway","(40.081680,-75.168659)","Subway","(39.979049,-75.160072)","7.105664472520371"
"Subway","(39.956246,-75.167830)","Subway","(39.954468,-75.170805)","0.19979632086456162"
"Subway","(39.954468,-75.170805)","Subway","(39.956246,-75.167830)","0.19979632086456162"
"Subway","(39.943341,-74.962544)","Subway","(39.942001,-75.026001)","3.3627851705562968"
"Subway","(39.942001,-75.026001)","Subway","(39.943341,-74.962544)","3.3627851705562968"
"Subway","(39.979049,-75.160072)","Subway","(39.956246,-75.167830)","1.6282157846540735"
"Subway","(39.950681,-75.152646)","Subway","(39.942944,-75.160396)","0.6740140061553839"
"Subway","(39.942944,-75.160396)","Subway","(39.950681,-75.152646)","0.6740140061553839"
"Subway","(39.922432,-75.169679)","Subway","(39.942944,-75.160396)","1.500156247578079"
"Subway","(39.950596,-75.177460)","StarBucks","(39.953282,-75.170213)","0.4263539738802443"
"Subway","(40.081680,-75.168659)","StarBucks","(39.954740,-75.166650)","8.771363276342672"
"Subway","(39.956246,-75.167830)","StarBucks","(39.954740,-75.166650)","0.12138034857426186"
"Subway","(39.954468,-75.170805)","StarBucks","(39.953282,-75.170213)","0.08773870449577724"
"Subway","(39.943341,-74.962544)","StarBucks","(39.952037,-75.145176)","9.692502496616003"
"Subway","(39.942001,-75.026001)","StarBucks","(39.952037,-75.145176)","6.3506314929277705"
"Subway","(39.979049,-75.160072)","StarBucks","(39.954740,-75.166650)","1.7153324441574302"
"Subway","(39.950681,-75.152646)","StarBucks","(39.950125,-75.157160)","0.2421598424220605"
"Subway","(39.942944,-75.160396)","StarBucks","(39.950125,-75.157160)","0.5249346400130113"
"Subway","(39.922432,-75.169679)","StarBucks","(39.941686,-75.149034)","1.7222538135155672"
"Subway","(39.950596,-75.177460)","Walmart","(40.031400,-75.102800)","6.8403089601700495"
"Subway","(40.081680,-75.168659)","Walmart","(40.081864,-75.168736)","0.013348975252702781"
"Subway","(39.956246,-75.167830)","Walmart","(40.031400,-75.102800)","6.229986676629025"
"Subway","(39.954468,-75.170805)","Walmart","(40.031400,-75.102800)","6.419729585222679"
"Subway","(39.943341,-74.962544)","Walmart","(39.854691,-75.023854)","6.93388417743036"
"Subway","(39.942001,-75.026001)","Walmart","(39.854691,-75.023854)","6.033620140299402"
"Subway","(39.979049,-75.160072)","Walmart","(40.031400,-75.102800)","4.719218992086812"
"Subway","(39.950681,-75.152646)","Walmart","(40.031400,-75.102800)","6.1698437252148555"
"Subway","(39.942944,-75.160396)","Walmart","(40.031400,-75.102800)","6.830074472773617"
"Subway","(39.922432,-75.169679)","Walmart","(39.832262,-75.129026)","6.592517520705495"
"Subway","(39.950596,-75.177460)","Wendys","(39.951163,-75.165788)","0.6194671989354082"
"Subway","(40.081680,-75.168659)","Wendys","(40.044653,-75.143114)","2.893043486546615"
"Subway","(39.956246,-75.167830)","Wendys","(39.951163,-75.165788)","0.3674777997266622"
"Subway","(39.954468,-75.170805)","Wendys","(39.951163,-75.165788)","0.350365431731659"
"Subway","(39.943341,-74.962544)","Wendys","(39.848808,-74.987305)","6.662185688083139"
"Subway","(39.942001,-75.026001)","Wendys","(39.993874,-75.096812)","5.187081371645478"
"Subway","(39.979049,-75.160072)","Wendys","(39.975800,-75.158685)","0.2361910059512816"
"Subway","(39.950681,-75.152646)","Wendys","(39.948874,-75.159064)","0.3621478188427793"
"Subway","(39.942944,-75.160396)","Wendys","(39.948874,-75.159064)","0.4157547458171438"
"Subway","(39.922432,-75.169679)","Wendys","(39.948874,-75.159064)","1.911561979160018"
"Subway","(39.950596,-75.177460)","Arbys","(39.978876,-75.119032)","3.6594381102436437"
"Subway","(40.081680,-75.168659)","Arbys","(39.978876,-75.119032)","7.572788103174725"
"Subway","(39.956246,-75.167830)","Arbys","(39.978876,-75.119032)","3.0202727373704064"
"Subway","(39.954468,-75.170805)","Arbys","(39.978876,-75.119032)","3.218770690933788"
"Subway","(39.943341,-74.962544)","Arbys","(39.913845,-74.924176)","2.8785401898034"
"Subway","(39.942001,-75.026001)","Arbys","(39.892041,-75.090035)","4.840502772814079"
"Subway","(39.979049,-75.160072)","Arbys","(39.978876,-75.119032)","2.172893029341545"
"Subway","(39.950681,-75.152646)","Arbys","(39.978876,-75.119032)","2.6388758703864448"
"Subway","(39.942944,-75.160396)","Arbys","(39.978876,-75.119032)","3.3109395931316166"
"Subway","(39.922432,-75.169679)","Arbys","(39.892041,-75.090035)","4.714605396549777"
"Subway","(39.950596,-75.177460)","AppleBees","(39.948828,-75.166003)","0.6190225682411096"
"Subway","(40.081680,-75.168659)","AppleBees","(40.091443,-75.125510)","2.37857621211016"
"Subway","(39.956246,-75.167830)","AppleBees","(39.948828,-75.166003)","0.5215900127520037"
"Subway","(39.954468,-75.170805)","AppleBees","(39.948828,-75.166003)","0.46534539406522835"
"Subway","(39.943341,-74.962544)","AppleBees","(39.893180,-75.087953)","7.495104846573726"
"Subway","(39.942001,-75.026001)","AppleBees","(39.893180,-75.087953)","4.707075295800679"
"Subway","(39.979049,-75.160072)","AppleBees","(39.948828,-75.166003)","2.111562381851994"
"Subway","(39.950681,-75.152646)","AppleBees","(39.948828,-75.166003)","0.7189788198789324"
"Subway","(39.942944,-75.160396)","AppleBees","(39.948828,-75.166003)","0.5034798011898963"
"Subway","(39.922432,-75.169679)","AppleBees","(39.948828,-75.166003)","1.8341584045849613"
"Subway","(39.950596,-75.177460)","Domino's","(39.962348,-75.172930)","0.846689117673217"
"Subway","(40.081680,-75.168659)","Domino's","(40.017819,-75.148834)","4.535250866783508"
"Subway","(39.956246,-75.167830)","Domino's","(39.962348,-75.172930)","0.5007051795251716"
"Subway","(39.954468,-75.170805)","Domino's","(39.962348,-75.172930)","0.5559659910814557"
"Subway","(39.943341,-74.962544)","Domino's","(39.946369,-75.027278)","3.435423935647448"
"Subway","(39.942001,-75.026001)","Domino's","(39.946369,-75.027278)","0.30928811668253614"
"Subway","(39.979049,-75.160072)","Domino's","(39.962348,-75.172930)","1.3398160786618956"
"Subway","(39.950681,-75.152646)","Domino's","(39.942223,-75.154529)","0.5928429965609393"
"Subway","(39.942944,-75.160396)","Domino's","(39.942223,-75.154529)","0.314760403979523"
"Subway","(39.922432,-75.169679)","Domino's","(39.942223,-75.154529)","1.5855998516386416"
"StarBucks","(39.954740,-75.166650)","StarBucks","(39.952532,-75.166623)","0.15256497940308197"
"StarBucks","(39.952037,-75.145176)","StarBucks","(39.950125,-75.157160)","0.6483524461656451"
"StarBucks","(39.949652,-75.167362)","StarBucks","(39.952532,-75.166623)","0.20280227181489396"
"StarBucks","(39.953033,-75.192279)","StarBucks","(39.954549,-75.192364)","0.1048423317270943"
"StarBucks","(39.954549,-75.192364)","StarBucks","(39.953033,-75.192279)","0.1048423317270943"
"StarBucks","(39.950125,-75.157160)","StarBucks","(39.950658,-75.161832)","0.2501873703985274"
"StarBucks","(39.941686,-75.149034)","StarBucks","(39.950125,-75.157160)","0.7247475227248026"
"StarBucks","(39.952532,-75.166623)","StarBucks","(39.954740,-75.166650)","0.15256497940308197"
"StarBucks","(39.953282,-75.170213)","StarBucks","(39.952532,-75.166623)","0.19707956450446898"
"StarBucks","(39.950658,-75.161832)","StarBucks","(39.950125,-75.157160)","0.2501873703985274"
"StarBucks","(39.954740,-75.166650)","Walmart","(40.031400,-75.102800)","6.283178835149851"
"StarBucks","(39.952037,-75.145176)","Walmart","(40.031400,-75.102800)","5.9245407057760096"
"StarBucks","(39.949652,-75.167362)","Walmart","(40.031400,-75.102800)","6.601746707145394"
"StarBucks","(39.953033,-75.192279)","Walmart","(40.031400,-75.102800)","7.193968266423223"
"StarBucks","(39.954549,-75.192364)","Walmart","(40.031400,-75.102800)","7.118425091782118"
"StarBucks","(39.950125,-75.157160)","Walmart","(40.031400,-75.102800)","6.3099224060161365"
"StarBucks","(39.941686,-75.149034)","Walmart","(40.031400,-75.102800)","6.664375061487464"
"StarBucks","(39.952532,-75.166623)","Walmart","(40.031400,-75.102800)","6.411585714350354"
"StarBucks","(39.953282,-75.170213)","Walmart","(40.031400,-75.102800)","6.470424060359193"
"StarBucks","(39.950658,-75.161832)","Walmart","(40.031400,-75.102800)","6.394318299065473"
"StarBucks","(39.954740,-75.166650)","Wendys","(39.951163,-75.165788)","0.2513288411062613"
"StarBucks","(39.952037,-75.145176)","Wendys","(39.948874,-75.159064)","0.7673831521107141"
"StarBucks","(39.949652,-75.167362)","Wendys","(39.951163,-75.165788)","0.13360379650839824"
"StarBucks","(39.953033,-75.192279)","Wendys","(39.951163,-75.165788)","1.4090518354914898"
"StarBucks","(39.954549,-75.192364)","Wendys","(39.951163,-75.165788)","1.4269114297941858"
"StarBucks","(39.950125,-75.157160)","Wendys","(39.948874,-75.159064)","0.13282321070079692"
"StarBucks","(39.941686,-75.149034)","Wendys","(39.948874,-75.159064)","0.7272783570235257"
"StarBucks","(39.952532,-75.166623)","Wendys","(39.951163,-75.165788)","0.10441765977536589"
"StarBucks","(39.953282,-75.170213)","Wendys","(39.951163,-75.165788)","0.27634450363779495"
"StarBucks","(39.950658,-75.161832)","Wendys","(39.948874,-75.159064)","0.19154477963711122"
"StarBucks","(39.954740,-75.166650)","Arbys","(39.978876,-75.119032)","3.0231417904576054"
"StarBucks","(39.952037,-75.145176)","Arbys","(39.978876,-75.119032)","2.3142037847936145"
"StarBucks","(39.949652,-75.167362)","Arbys","(39.978876,-75.119032)","3.2599897972250536"
"StarBucks","(39.953033,-75.192279)","Arbys","(39.978876,-75.119032)","4.270053428546728"
"StarBucks","(39.954549,-75.192364)","Arbys","(39.978876,-75.119032)","4.2314144779004605"
"StarBucks","(39.950125,-75.157160)","Arbys","(39.978876,-75.119032)","2.8324924992330587"
"StarBucks","(39.941686,-75.149034)","Arbys","(39.978876,-75.119032)","3.0211469950695573"
"StarBucks","(39.952532,-75.166623)","Arbys","(39.978876,-75.119032)","3.1087748558855166"
"StarBucks","(39.953282,-75.170213)","Arbys","(39.978876,-75.119032)","3.236171325599986"
"StarBucks","(39.950658,-75.161832)","Arbys","(39.978876,-75.119032)","2.9897040106339148"
"StarBucks","(39.954740,-75.166650)","AppleBees","(39.948828,-75.166003)","0.40991527327102634"
"StarBucks","(39.952037,-75.145176)","AppleBees","(39.948828,-75.166003)","1.1252056399210664"
"StarBucks","(39.949652,-75.167362)","AppleBees","(39.948828,-75.166003)","0.09177680535412429"
"StarBucks","(39.953033,-75.192279)","AppleBees","(39.948828,-75.166003)","1.4217541704420356"
"StarBucks","(39.954549,-75.192364)","AppleBees","(39.948828,-75.166003)","1.4511135573772065"
"StarBucks","(39.950125,-75.157160)","AppleBees","(39.948828,-75.166003)","0.4768895769811714"
"StarBucks","(39.941686,-75.149034)","AppleBees","(39.948828,-75.166003)","1.0254107991206738"
"StarBucks","(39.952532,-75.166623)","AppleBees","(39.948828,-75.166003)","0.2580203832706365"
"StarBucks","(39.953282,-75.170213)","AppleBees","(39.948828,-75.166003)","0.3800386555528691"
"StarBucks","(39.950658,-75.161832)","AppleBees","(39.948828,-75.166003)","0.25455132711774736"
"StarBucks","(39.954740,-75.166650)","Domino's","(39.962348,-75.172930)","0.6220448463360507"
"StarBucks","(39.952037,-75.145176)","Domino's","(39.942223,-75.154529)","0.8397868027758539"
"StarBucks","(39.949652,-75.167362)","Domino's","(39.942223,-75.154529)","0.8517980315470375"
"StarBucks","(39.953033,-75.192279)","Domino's","(39.962348,-75.172930)","1.210099607586093"
"StarBucks","(39.954549,-75.192364)","Domino's","(39.962348,-75.172930)","1.1617685224720595"
"StarBucks","(39.950125,-75.157160)","Domino's","(39.942223,-75.154529)","0.5634825871854904"
"StarBucks","(39.941686,-75.149034)","Domino's","(39.942223,-75.154529)","0.29344503702264324"
"StarBucks","(39.952532,-75.166623)","Domino's","(39.962348,-75.172930)","0.7560152466937715"
"StarBucks","(39.953282,-75.170213)","Domino's","(39.962348,-75.172930)","0.6427162703749257"
"StarBucks","(39.950658,-75.161832)","Domino's","(39.942223,-75.154529)","0.699503526976488"
"Walmart","(40.031400,-75.102800)","Walmart","(40.081864,-75.168736)","4.931176162159052"
"Walmart","(40.081864,-75.168736)","Walmart","(40.031400,-75.102800)","4.931176162159052"
"Walmart","(39.938644,-75.355761)","Walmart","(40.081864,-75.168736)","13.995793533135314"
"Walmart","(39.854691,-75.023854)","Walmart","(39.843806,-75.091716)","3.677485696108237"
"Walmart","(39.832262,-75.129026)","Walmart","(39.843806,-75.091716)","2.1341006137651397"
"Walmart","(40.047854,-74.842172)","Walmart","(40.136500,-74.967900)","9.037592316596317"
"Walmart","(40.136500,-74.967900)","Walmart","(40.047854,-74.842172)","9.037592316596317"
"Walmart","(39.808384,-74.928061)","Walmart","(39.854691,-75.023854)","6.005870634606266"
"Walmart","(39.843806,-75.091716)","Walmart","(39.832262,-75.129026)","2.1341006137651397"
"Walmart","(39.729173,-75.035353)","Walmart","(39.808384,-74.928061)","7.900664106520155"
"Walmart","(40.031400,-75.102800)","Wendys","(40.044653,-75.143114)","2.3208572463256685"
"Walmart","(40.081864,-75.168736)","Wendys","(40.044653,-75.143114)","2.9061870214797696"
"Walmart","(39.938644,-75.355761)","Wendys","(39.978415,-75.272543)","5.193767948393183"
"Walmart","(39.854691,-75.023854)","Wendys","(39.848808,-74.987305)","1.9808360930663644"
"Walmart","(39.832262,-75.129026)","Wendys","(39.848808,-74.987305)","7.60500470197732"
"Walmart","(40.047854,-74.842172)","Wendys","(39.993874,-75.096812)","13.98030288660926"
"Walmart","(40.136500,-74.967900)","Wendys","(40.044653,-75.143114)","11.227099308083984"
"Walmart","(39.808384,-74.928061)","Wendys","(39.848808,-74.987305)","4.205116622124733"
"Walmart","(39.843806,-75.091716)","Wendys","(39.848808,-74.987305)","5.549522136920092"
"Walmart","(39.729173,-75.035353)","Wendys","(39.848808,-74.987305)","8.650664082183747"
"Walmart","(40.031400,-75.102800)","Arbys","(39.978876,-75.119032)","3.729357028676765"
"Walmart","(40.081864,-75.168736)","Arbys","(39.978876,-75.119032)","7.586123909851909"
"Walmart","(39.938644,-75.355761)","Arbys","(39.885258,-75.302449)","4.64635578224312"
"Walmart","(39.854691,-75.023854)","Arbys","(39.862681,-75.035028)","0.8099360808814471"
"Walmart","(39.832262,-75.129026)","Arbys","(39.826214,-75.159165)","1.6528933421561485"
"Walmart","(40.047854,-74.842172)","Arbys","(40.038693,-74.915425)","3.926082128852762"
"Walmart","(40.136500,-74.967900)","Arbys","(40.038693,-74.915425)","7.304960652361507"
"Walmart","(39.808384,-74.928061)","Arbys","(39.862681,-75.035028)","6.803122342222844"
"Walmart","(39.843806,-75.091716)","Arbys","(39.820873,-75.090771)","1.585312573720031"
"Walmart","(39.729173,-75.035353)","Arbys","(39.758400,-75.046906)","2.110608206877058"
"Walmart","(40.031400,-75.102800)","AppleBees","(39.993106,-75.092720)","2.6990990807756208"
"Walmart","(40.081864,-75.168736)","AppleBees","(40.091443,-75.125510)","2.3789084662304822"
"Walmart","(39.938644,-75.355761)","AppleBees","(39.973975,-75.323181)","2.9894103339382676"
"Walmart","(39.854691,-75.023854)","AppleBees","(39.893180,-75.087953)","4.315643680741527"
"Walmart","(39.832262,-75.129026)","AppleBees","(39.893180,-75.087953)","4.739299347763843"
"Walmart","(40.047854,-74.842172)","AppleBees","(39.993106,-75.092720)","13.786290678212591"
"Walmart","(40.136500,-74.967900)","AppleBees","(40.091443,-75.125510)","8.89098217942783"
"Walmart","(39.808384,-74.928061)","AppleBees","(39.893180,-75.087953)","10.308199441914"
"Walmart","(39.843806,-75.091716)","AppleBees","(39.893180,-75.087953)","3.4172501788999448"
"Walmart","(39.729173,-75.035353)","AppleBees","(39.893180,-75.087953)","11.670627317798502"
"Walmart","(40.031400,-75.102800)","Domino's","(40.017819,-75.148834)","2.6101434887332142"
"Walmart","(40.081864,-75.168736)","Domino's","(40.017819,-75.148834)","4.548560963008439"
"Walmart","(39.938644,-75.355761)","Domino's","(40.025739,-75.324855)","6.2361758068567905"
"Walmart","(39.854691,-75.023854)","Domino's","(39.884203,-75.086881)","3.915207803683351"
"Walmart","(39.832262,-75.129026)","Domino's","(39.884203,-75.086881)","4.227993012859968"
"Walmart","(40.047854,-74.842172)","Domino's","(39.895100,-74.921300)","11.35553995785778"
"Walmart","(40.136500,-74.967900)","Domino's","(40.017819,-75.148834)","12.599399359486428"
"Walmart","(39.808384,-74.928061)","Domino's","(39.895100,-74.921300)","6.002228561329945"
"Walmart","(39.843806,-75.091716)","Domino's","(39.884203,-75.086881)","2.802920589020941"
"Walmart","(39.729173,-75.035353)","Domino's","(39.884203,-75.086881)","11.05520926001136"
"Wendys","(39.951163,-75.165788)","Wendys","(39.948874,-75.159064)","0.38968904886860467"
"Wendys","(39.948874,-75.159064)","Wendys","(39.951163,-75.165788)","0.38968904886860467"
"Wendys","(39.975800,-75.158685)","Wendys","(39.951163,-75.165788)","1.7433192548273009"
"Wendys","(39.996438,-75.237221)","Wendys","(39.978415,-75.272543)","2.2465941702560053"
"Wendys","(39.993874,-75.096812)","Wendys","(39.975800,-75.158685)","3.505554720537295"
"Wendys","(39.956310,-75.258246)","Wendys","(39.978415,-75.272543)","1.704655285780166"
"Wendys","(39.978415,-75.272543)","Wendys","(39.956310,-75.258246)","1.704655285780166"
"Wendys","(40.100748,-75.305054)","Wendys","(39.996438,-75.237221)","8.0507604290983"
"Wendys","(39.848808,-74.987305)","Wendys","(39.948874,-75.159064)","11.432080824196442"
"Wendys","(40.044653,-75.143114)","Wendys","(39.993874,-75.096812)","4.279262115801112"
"Wendys","(39.951163,-75.165788)","Arbys","(39.978876,-75.119032)","3.130011720262358"
"Wendys","(39.948874,-75.159064)","Arbys","(39.978876,-75.119032)","2.965014673384972"
"Wendys","(39.975800,-75.158685)","Arbys","(39.978876,-75.119032)","2.110205366258928"
"Wendys","(39.996438,-75.237221)","Arbys","(39.978876,-75.119032)","6.373290595423427"
"Wendys","(39.993874,-75.096812)","Arbys","(39.978876,-75.119032)","1.567655512102839"
"Wendys","(39.956310,-75.258246)","Arbys","(39.885258,-75.302449)","5.439388023910383"
"Wendys","(39.978415,-75.272543)","Arbys","(39.885258,-75.302449)","6.628688826666484"
"Wendys","(40.100748,-75.305054)","Arbys","(39.978876,-75.119032)","12.951218781833033"
"Wendys","(39.848808,-74.987305)","Arbys","(39.862681,-75.035028)","2.7066526471229997"
"Wendys","(40.044653,-75.143114)","Arbys","(39.978876,-75.119032)","4.720057225674429"
"Wendys","(39.951163,-75.165788)","AppleBees","(39.948828,-75.166003)","0.16173456292918875"
"Wendys","(39.948874,-75.159064)","AppleBees","(39.948828,-75.166003)","0.3675604915373996"
"Wendys","(39.975800,-75.158685)","AppleBees","(39.948828,-75.166003)","1.9034576206247877"
"Wendys","(39.996438,-75.237221)","AppleBees","(39.978352,-75.272200)","2.233936399556387"
"Wendys","(39.993874,-75.096812)","AppleBees","(39.993106,-75.092720)","0.22300968394998497"
"Wendys","(39.956310,-75.258246)","AppleBees","(39.978352,-75.272200)","1.692749396577045"
"Wendys","(39.978415,-75.272543)","AppleBees","(39.978352,-75.272200)","0.018674659491162655"
"Wendys","(40.100748,-75.305054)","AppleBees","(40.063237,-75.238229)","4.381465609972957"
"Wendys","(39.848808,-74.987305)","AppleBees","(39.893180,-75.087953)","6.15508220530724"
"Wendys","(40.044653,-75.143114)","AppleBees","(40.091443,-75.125510)","3.3642174172275165"
"Wendys","(39.951163,-75.165788)","Domino's","(39.942223,-75.154529)","0.8586189663559292"
"Wendys","(39.948874,-75.159064)","Domino's","(39.942223,-75.154529)","0.5185405083741145"
"Wendys","(39.975800,-75.158685)","Domino's","(39.962348,-75.172930)","1.1970174041045112"
"Wendys","(39.996438,-75.237221)","Domino's","(39.962348,-75.172930)","4.1393424159698515"
"Wendys","(39.993874,-75.096812)","Domino's","(39.958764,-75.065391)","2.9415246470532175"
"Wendys","(39.956310,-75.258246)","Domino's","(39.962348,-75.172930)","4.537566393758716"
"Wendys","(39.978415,-75.272543)","Domino's","(40.025739,-75.324855)","4.284535269963816"
"Wendys","(40.100748,-75.305054)","Domino's","(40.025739,-75.324855)","5.287342482320052"
"Wendys","(39.848808,-74.987305)","Domino's","(39.895100,-74.921300)","4.741403113884926"
"Wendys","(40.044653,-75.143114)","Domino's","(40.017819,-75.148834)","1.8785864182678973"
"Arbys","(39.892041,-75.090035)","Arbys","(39.862681,-75.035028)","3.5527592530482655"
"Arbys","(39.978876,-75.119032)","Arbys","(39.892041,-75.090035)","6.1932788296406045"
"Arbys","(39.862681,-75.035028)","Arbys","(39.892041,-75.090035)","3.5527592530482655"
"Arbys","(39.826214,-75.159165)","Arbys","(39.820873,-75.090771)","3.64805145015075"
"Arbys","(39.913845,-74.924176)","Arbys","(39.971719,-74.910551)","4.063328187950489"
"Arbys","(39.885258,-75.302449)","Arbys","(39.826214,-75.159165)","8.625546637596079"
"Arbys","(39.820873,-75.090771)","Arbys","(39.826214,-75.159165)","3.64805145015075"
"Arbys","(39.758400,-75.046906)","Arbys","(39.820873,-75.090771)","4.90463964748082"
"Arbys","(40.038693,-74.915425)","Arbys","(39.971719,-74.910551)","4.634647047140135"
"Arbys","(39.971719,-74.910551)","Arbys","(39.913845,-74.924176)","4.063328187950489"
"Arbys","(39.892041,-75.090035)","AppleBees","(39.893180,-75.087953)","0.13555418036249964"
"Arbys","(39.978876,-75.119032)","AppleBees","(39.976317,-75.119568)","0.17907308829738647"
"Arbys","(39.862681,-75.035028)","AppleBees","(39.893180,-75.087953)","3.509368149001545"
"Arbys","(39.826214,-75.159165)","AppleBees","(39.893180,-75.087953)","5.972701894828842"
"Arbys","(39.913845,-74.924176)","AppleBees","(39.893180,-75.087953)","8.797368807099893"
"Arbys","(39.885258,-75.302449)","AppleBees","(39.888426,-75.327312)","1.3361932805569605"
"Arbys","(39.820873,-75.090771)","AppleBees","(39.893180,-75.087953)","4.998173394263539"
"Arbys","(39.758400,-75.046906)","AppleBees","(39.893180,-75.087953)","9.563738618499531"
"Arbys","(40.038693,-74.915425)","AppleBees","(39.993106,-75.092720)","9.896416593564384"
"Arbys","(39.971719,-74.910551)","AppleBees","(39.993106,-75.092720)","9.756985678570347"
"Arbys","(39.892041,-75.090035)","Domino's","(39.884203,-75.086881)","0.5667805763589816"
"Arbys","(39.978876,-75.119032)","Domino's","(39.939380,-75.119217)","2.728931407585702"
"Arbys","(39.862681,-75.035028)","Domino's","(39.884203,-75.086881)","3.125938342538126"
"Arbys","(39.826214,-75.159165)","Domino's","(39.817066,-75.260664)","5.423168998386122"
"Arbys","(39.913845,-74.924176)","Domino's","(39.895100,-74.921300)","1.3040959242540173"
"Arbys","(39.885258,-75.302449)","Domino's","(39.817066,-75.260664)","5.206912529661197"
"Arbys","(39.820873,-75.090771)","Domino's","(39.884203,-75.086881)","4.380548665820038"
"Arbys","(39.758400,-75.046906)","Domino's","(39.884203,-75.086881)","8.947276605233807"
"Arbys","(40.038693,-74.915425)","Domino's","(39.946369,-75.027278)","8.703339558454712"
"Arbys","(39.971719,-74.910551)","Domino's","(39.895100,-74.921300)","5.3244117669674775"
"AppleBees","(39.948828,-75.166003)","AppleBees","(39.976317,-75.119568)","3.107166997547284"
"AppleBees","(39.976317,-75.119568)","AppleBees","(39.993106,-75.092720)","1.8346243452810251"
"AppleBees","(39.993106,-75.092720)","AppleBees","(39.976317,-75.119568)","1.8346243452810251"
"AppleBees","(39.973975,-75.323181)","AppleBees","(39.978352,-75.272200)","2.7161847355562774"
"AppleBees","(40.063237,-75.238229)","AppleBees","(39.978352,-75.272200)","6.1342595350687885"
"AppleBees","(39.893180,-75.087953)","AppleBees","(39.948828,-75.166003)","5.647001940953037"
"AppleBees","(40.091443,-75.125510)","AppleBees","(40.063237,-75.238229)","6.269869049968481"
"AppleBees","(39.978352,-75.272200)","AppleBees","(39.973975,-75.323181)","2.7161847355562774"
"AppleBees","(39.856410,-75.427499)","AppleBees","(39.888426,-75.327312)","5.754795332086614"
"AppleBees","(39.888426,-75.327312)","AppleBees","(39.856410,-75.427499)","5.754795332086614"
"AppleBees","(39.948828,-75.166003)","Domino's","(39.942223,-75.154529)","0.760047226769145"
"AppleBees","(39.976317,-75.119568)","Domino's","(39.939380,-75.119217)","2.5521714522002634"
"AppleBees","(39.993106,-75.092720)","Domino's","(39.958764,-75.065391)","2.779209921681316"
"AppleBees","(39.973975,-75.323181)","Domino's","(40.025739,-75.324855)","3.5776492467009913"
"AppleBees","(40.063237,-75.238229)","Domino's","(40.025739,-75.324855)","5.263778787134967"
"AppleBees","(39.893180,-75.087953)","Domino's","(39.884203,-75.086881)","0.6228498837335883"
"AppleBees","(40.091443,-75.125510)","Domino's","(40.017819,-75.148834)","5.23435458056805"
"AppleBees","(39.978352,-75.272200)","Domino's","(40.025739,-75.324855)","4.2996035304140685"
"AppleBees","(39.856410,-75.427499)","Domino's","(39.817066,-75.260664)","9.259452820911132"
"AppleBees","(39.888426,-75.327312)","Domino's","(39.817066,-75.260664)","6.0669111241381595"
"Domino's","(39.962348,-75.172930)","Domino's","(39.942223,-75.154529)","1.6980543644735904"
"Domino's","(39.942223,-75.154529)","Domino's","(39.962348,-75.172930)","1.6980543644735904"
"Domino's","(40.017819,-75.148834)","Domino's","(39.962348,-75.172930)","4.0393665251517215"
"Domino's","(39.939380,-75.119217)","Domino's","(39.942223,-75.154529)","1.8809205004517602"
"Domino's","(39.817066,-75.260664)","Domino's","(39.942223,-75.154529)","10.31736733870613"
"Domino's","(39.884203,-75.086881)","Domino's","(39.939380,-75.119217)","4.179826131566691"
"Domino's","(39.958764,-75.065391)","Domino's","(39.946369,-75.027278)","2.192822392312156"
"Domino's","(39.946369,-75.027278)","Domino's","(39.958764,-75.065391)","2.192822392312156"
"Domino's","(40.025739,-75.324855)","Domino's","(39.962348,-75.172930)","9.157259119196445"
"Domino's","(39.895100,-74.921300)","Domino's","(39.946369,-75.027278)","6.639667657394093"
