<?xml version="1.0" encoding="UTF-8" standalone="no"?>
<!-- Created with Inkscape (http://www.inkscape.org/) -->

<svg
   xmlns:dc="http://purl.org/dc/elements/1.1/"
   xmlns:cc="http://creativecommons.org/ns#"
   xmlns:rdf="http://www.w3.org/1999/02/22-rdf-syntax-ns#"
   xmlns:svg="http://www.w3.org/2000/svg"
   xmlns="http://www.w3.org/2000/svg"
   xmlns:sodipodi="http://sodipodi.sourceforge.net/DTD/sodipodi-0.dtd"
   xmlns:inkscape="http://www.inkscape.org/namespaces/inkscape"
   width="744.09448819"
   height="1052.3622047"
   id="svg2"
   version="1.1"
   inkscape:version="0.48.4 r9939"
   sodipodi:docname="marketecture-internal-components.png"
   inkscape:export-filename="X:\Dropbox\active\brand_gravity\marketecture-all-color.png"
   inkscape:export-xdpi="90"
   inkscape:export-ydpi="90">
  <defs
     id="defs4">
    <inkscape:path-effect
       effect="skeletal"
       id="path-effect6903"
       is_visible="true"
       pattern="m 0,-16 0,10 10,-5 z"
       copytype="single_stretched"
       prop_scale="1"
       scale_y_rel="false"
       spacing="0"
       normal_offset="0"
       tang_offset="0"
       prop_units="false"
       vertical_pattern="false"
       fuse_tolerance="0" />
    <marker
       inkscape:stockid="Arrow1Mend"
       orient="auto"
       refY="0.0"
       refX="0.0"
       id="Arrow1Mend"
       style="overflow:visible;">
      <path
         id="path4648"
         d="M 0.0,0.0 L 5.0,-5.0 L -12.5,0.0 L 5.0,5.0 L 0.0,0.0 z "
         style="fill-rule:evenodd;stroke:#000000;stroke-width:1.0pt;"
         transform="scale(0.4) rotate(180) translate(10,0)" />
    </marker>
    <marker
       inkscape:stockid="Arrow2Mend"
       orient="auto"
       refY="0.0"
       refX="0.0"
       id="Arrow2Mend"
       style="overflow:visible;">
      <path
         id="path4666"
         style="fill-rule:evenodd;stroke-width:0.62500000;stroke-linejoin:round;"
         d="M 8.7185878,4.0337352 L -2.2072895,0.016013256 L 8.7185884,-4.0017078 C 6.9730900,-1.6296469 6.9831476,1.6157441 8.7185878,4.0337352 z "
         transform="scale(0.6) rotate(180) translate(0,0)" />
    </marker>
    <marker
       inkscape:stockid="Arrow1Lend"
       orient="auto"
       refY="0.0"
       refX="0.0"
       id="Arrow1Lend"
       style="overflow:visible;">
      <path
         id="path4642"
         d="M 0.0,0.0 L 5.0,-5.0 L -12.5,0.0 L 5.0,5.0 L 0.0,0.0 z "
         style="fill-rule:evenodd;stroke:#000000;stroke-width:1.0pt;"
         transform="scale(0.8) rotate(180) translate(12.5,0)" />
    </marker>
    <marker
       inkscape:stockid="Arrow1Mend"
       orient="auto"
       refY="0"
       refX="0"
       id="Arrow1Mend-9"
       style="overflow:visible">
      <path
         inkscape:connector-curvature="0"
         id="path4648-3"
         d="M 0,0 5,-5 -12.5,0 5,5 0,0 z"
         style="fill-rule:evenodd;stroke:#000000;stroke-width:1pt"
         transform="matrix(-0.4,0,0,-0.4,-4,0)" />
    </marker>
    <marker
       inkscape:stockid="Arrow1Lend"
       orient="auto"
       refY="0"
       refX="0"
       id="Arrow1Lend-0"
       style="overflow:visible">
      <path
         inkscape:connector-curvature="0"
         id="path4642-2"
         d="M 0,0 5,-5 -12.5,0 5,5 0,0 z"
         style="fill-rule:evenodd;stroke:#000000;stroke-width:1pt"
         transform="matrix(-0.8,0,0,-0.8,-10,0)" />
    </marker>
    <marker
       inkscape:stockid="Arrow1Mend"
       orient="auto"
       refY="0"
       refX="0"
       id="Arrow1Mend-7"
       style="overflow:visible">
      <path
         inkscape:connector-curvature="0"
         id="path4648-4"
         d="M 0,0 5,-5 -12.5,0 5,5 0,0 z"
         style="fill-rule:evenodd;stroke:#000000;stroke-width:1pt"
         transform="matrix(-0.4,0,0,-0.4,-4,0)" />
    </marker>
    <marker
       inkscape:stockid="Arrow1Lend"
       orient="auto"
       refY="0"
       refX="0"
       id="Arrow1Lend-9"
       style="overflow:visible">
      <path
         inkscape:connector-curvature="0"
         id="path4642-4"
         d="M 0,0 5,-5 -12.5,0 5,5 0,0 z"
         style="fill-rule:evenodd;stroke:#000000;stroke-width:1pt"
         transform="matrix(-0.8,0,0,-0.8,-10,0)" />
    </marker>
  </defs>
  <sodipodi:namedview
     id="base"
     pagecolor="#ffffff"
     bordercolor="#666666"
     borderopacity="1.0"
     inkscape:pageopacity="0.0"
     inkscape:pageshadow="2"
     inkscape:zoom="0.7"
     inkscape:cx="437.68701"
     inkscape:cy="419.95148"
     inkscape:document-units="px"
     inkscape:current-layer="layer1"
     showgrid="false"
     showguides="true"
     inkscape:snap-global="true"
     inkscape:window-width="1920"
     inkscape:window-height="1148"
     inkscape:window-x="-8"
     inkscape:window-y="-8"
     inkscape:window-maximized="1"
     inkscape:connector-spacing="0"
     inkscape:guide-bbox="true">
    <inkscape:grid
       type="xygrid"
       id="grid3833" />
  </sodipodi:namedview>
  <metadata
     id="metadata7">
    <rdf:RDF>
      <cc:Work
         rdf:about="">
        <dc:format>image/svg+xml</dc:format>
        <dc:type
           rdf:resource="http://purl.org/dc/dcmitype/StillImage" />
        <dc:title></dc:title>
      </cc:Work>
    </rdf:RDF>
  </metadata>
  <g
     inkscape:label="Layer 1"
     inkscape:groupmode="layer"
     id="layer1">
    <path
       sodipodi:type="arc"
       id="path3859"
       style="fill:#000000;stroke:none"
       sodipodi:cx="-98.994949"
       sodipodi:cy="834.16925"
       sodipodi:rx="1.5"
       sodipodi:ry="1.5"
       d="m -97.494949,834.16925 a 1.5,1.5 0 1 1 -3.000001,0 1.5,1.5 0 1 1 3.000001,0 z" />
    <rect
       style="fill:#b3b3b3;fill-rule:evenodd;stroke:#000000;stroke-width:0.61127454px;stroke-linecap:butt;stroke-linejoin:miter;stroke-opacity:1"
       id="rect2985"
       width="553.94708"
       height="54.408802"
       x="162.91138"
       y="853.23566" />
    <rect
       style="fill:#b3b3b3;stroke:#000000;stroke-width:0.80747032;stroke-opacity:1"
       id="rect3819"
       width="246.51256"
       height="51.47356"
       x="161.82056"
       y="793.03632" />
    <rect
       style="fill:#b3b3b3;stroke:#000000;stroke-width:0.76696837;stroke-opacity:1"
       id="rect3821"
       width="216.78308"
       height="48.411018"
       x="496.42355"
       y="794.97272" />
    <rect
       style="fill:#b3b3b3;stroke:#000000;stroke-width:0.87669563;stroke-opacity:1"
       id="rect3841"
       width="169.67567"
       height="156.76772"
       x="539.55371"
       y="627.88721" />
    <path
       style="fill:#ff8080;stroke:#000000;stroke-width:0.66447902;stroke-opacity:1"
       d="m 163.27611,784.99954 c 36.75592,1.39328 77.19017,-2.11287 113.94609,-0.7196 18.38867,-53.79268 33.09902,-102.68594 51.4877,-156.47862 -55.07486,-0.69664 -110.14972,-1.39327 -165.22458,-2.0899 -0.0697,53.09603 -0.13947,106.19209 -0.20921,159.28812 z"
       id="rect3838"
       inkscape:connector-curvature="0"
       sodipodi:nodetypes="ccccc" />
    <path
       style="fill:#ff8080;stroke:#000000;stroke-width:0.74948567px;stroke-linecap:butt;stroke-linejoin:miter;stroke-opacity:1"
       d="m 287.15378,785.18376 18.17258,-52.74474 222.32375,-1.04852 -0.41301,55.88989 -38.83369,0 0.42269,56.72556 -73.74552,0 0.11887,-58.89377 z"
       id="path3845"
       inkscape:connector-curvature="0"
       sodipodi:nodetypes="ccccccccc" />
    <path
       style="fill:#ff8080;stroke:#000000;stroke-width:1.01723325px;stroke-linecap:butt;stroke-linejoin:miter;stroke-opacity:1"
       d="m 306.6588,727.00986 16.35432,-46.70445 204.13056,-1.85798 0,46.86495 z"
       id="path3847"
       inkscape:connector-curvature="0"
       sodipodi:nodetypes="ccccc" />
    <path
       style="fill:#ff8080;stroke:#000000;stroke-width:1.08211219px;stroke-linecap:butt;stroke-linejoin:miter;stroke-opacity:1"
       d="m 324.18176,674.45665 14.88465,-45.86656 187.65323,-0.77637 0,44.38493 z"
       id="path3851"
       inkscape:connector-curvature="0"
       sodipodi:nodetypes="ccccc" />
    <rect
       style="fill:#ff8080;stroke:#000000;stroke-width:1.02122021;stroke-opacity:1"
       id="rect3857"
       width="366.08212"
       height="50.85088"
       x="163.19469"
       y="566.27557" />
    <path
       style="fill:#b3b3b3;stroke:#000000;stroke-width:0.83694267px;stroke-linecap:butt;stroke-linejoin:miter;stroke-opacity:1"
       d="m 163.94263,556.44237 154.92089,0 40.57415,-70.85839 -197.17896,0 z"
       id="path3887"
       inkscape:connector-curvature="0" />
    <path
       style="fill:#b3b3b3;stroke:#000000;stroke-width:0.83694267px;stroke-linecap:butt;stroke-linejoin:miter;stroke-opacity:1"
       d="m 526.08272,486.98893 -154.92087,0 -40.57416,70.85839 197.17896,0 z"
       id="path3887-3"
       inkscape:connector-curvature="0" />
    <rect
       style="fill:#ffb380;stroke:#000000;stroke-width:0.89356595;stroke-opacity:1"
       id="rect3936"
       width="458.83722"
       height="49.355453"
       x="195.96938"
       y="214.56427"
       ry="2.3582828" />
    <rect
       style="fill:#ffb380;stroke:#000000;stroke-width:0.89356595;stroke-opacity:1"
       id="rect3936-3"
       width="458.83722"
       height="49.355453"
       x="195.54834"
       y="327.60464"
       ry="2.3582828" />
    <rect
       style="fill:#ffb380;stroke:#000000;stroke-width:0.89356595;stroke-opacity:1"
       id="rect3936-6"
       width="458.83722"
       height="49.355453"
       x="195.54834"
       y="271.6922"
       ry="2.3582828" />
    <g
       id="g4218"
       style="fill:#ac9393"
       transform="matrix(0.83358198,0,0,0.8021812,120.14667,73.671758)">
      <rect
         ry="2.4639766"
         y="452.49188"
         x="48.586723"
         height="54.349426"
         width="536.19214"
         id="rect3909"
         style="fill:#ac9393;stroke:#000000;stroke-width:1.19880891;stroke-opacity:1" />
      <rect
         transform="matrix(0.99999664,-0.00259317,0.00259317,0.99999664,0,0)"
         ry="2.106621"
         y="516.52417"
         x="501.50378"
         height="165.66502"
         width="201.02036"
         id="rect3911"
         style="fill:#ac9393;stroke:#000000;stroke-width:1;stroke-opacity:1" />
      <path
         inkscape:connector-curvature="0"
         id="path3970"
         d="m 48.569648,440.21914 546.074692,1.42862 0,65.00192 49.64315,0 0,-120.71785 -595.717842,0 z"
         style="fill:#ac9393;stroke:#000000;stroke-width:0.99643981px;stroke-linecap:butt;stroke-linejoin:miter;stroke-opacity:1" />
      <path
         sodipodi:nodetypes="ccccccccc"
         inkscape:connector-curvature="0"
         id="path3976"
         d="m 47.142857,377.36218 37.142857,0 0,-210.57143 566.428576,0 2.14286,338.42857 48.57142,0.71429 0,-401.57143 -654.285712,-1.42857 z"
         style="fill:#ac9393;stroke:#000000;stroke-width:1px;stroke-linecap:butt;stroke-linejoin:miter;stroke-opacity:1" />
    </g>
    <text
       xml:space="preserve"
       style="font-size:32.70923615px;font-style:normal;font-weight:normal;text-align:center;line-height:125%;letter-spacing:0px;word-spacing:0px;text-anchor:middle;fill:#000000;fill-opacity:1;stroke:none;font-family:Sans"
       x="419.98291"
       y="669.66626"
       id="text4003"
       sodipodi:linespacing="125%"
       transform="scale(1.0193842,0.98098439)"><tspan
         sodipodi:role="line"
         x="419.98291"
         y="669.66626"
         style="font-size:21.26100349px;text-align:center;text-anchor:middle"
         id="tspan4011">Address Extractor</tspan></text>
    <text
       xml:space="preserve"
       style="font-size:17.99007988px;font-style:normal;font-weight:normal;line-height:125%;letter-spacing:0px;word-spacing:0px;fill:#000000;fill-opacity:1;stroke:none;font-family:Sans"
       x="325.19626"
       y="900.95551"
       id="text4013"
       sodipodi:linespacing="125%"
       transform="scale(1.0193842,0.98098439)"><tspan
         sodipodi:role="line"
         id="tspan4015"
         x="325.19626"
         y="900.95551"
         style="font-size:21.26100349px">Operating System</tspan></text>
    <text
       xml:space="preserve"
       style="font-size:21.26100349px;font-style:normal;font-weight:normal;line-height:125%;letter-spacing:0px;word-spacing:0px;fill:#000000;fill-opacity:1;stroke:none;font-family:Sans"
       x="571.11847"
       y="841.0257"
       id="text4021"
       sodipodi:linespacing="125%"
       transform="scale(1.0193842,0.98098439)"><tspan
         sodipodi:role="line"
         id="tspan4023"
         x="571.11847"
         y="841.0257">Java</tspan></text>
    <text
       xml:space="preserve"
       style="font-size:21.26100349px;font-style:normal;font-weight:normal;line-height:125%;letter-spacing:0px;word-spacing:0px;fill:#000000;fill-opacity:1;stroke:none;font-family:Sans"
       x="247.61374"
       y="839.63806"
       id="text4021-2"
       sodipodi:linespacing="125%"
       transform="scale(1.0193842,0.98098439)"><tspan
         sodipodi:role="line"
         id="tspan4023-3"
         x="247.61374"
         y="839.63806">Java</tspan></text>
    <text
       xml:space="preserve"
       style="font-size:21.26100349px;font-style:normal;font-weight:normal;line-height:125%;letter-spacing:0px;word-spacing:0px;fill:#000000;fill-opacity:1;stroke:none;font-family:Sans"
       x="182.19528"
       y="708.80115"
       id="text4021-9"
       sodipodi:linespacing="125%"
       transform="scale(1.0193842,0.98098439)"><tspan
         sodipodi:role="line"
         id="tspan4023-39"
         x="182.19528"
         y="708.80115">Location </tspan><tspan
         sodipodi:role="line"
         x="182.19528"
         y="735.37738"
         id="tspan4172"> Fetcher</tspan></text>
    <text
       xml:space="preserve"
       style="font-size:21.26100349px;font-style:normal;font-weight:normal;line-height:125%;letter-spacing:0px;word-spacing:0px;fill:#000000;fill-opacity:1;stroke:none;font-family:Sans"
       x="554.84686"
       y="712.30573"
       id="text4021-7"
       sodipodi:linespacing="125%"
       transform="scale(1.0193842,0.98098439)"><tspan
         sodipodi:role="line"
         id="tspan4023-7"
         x="554.84686"
         y="712.30573"> Graphical</tspan><tspan
         sodipodi:role="line"
         x="554.84686"
         y="738.88196"
         id="tspan4174">Framework</tspan></text>
    <text
       xml:space="preserve"
       style="font-size:21.26100349px;font-style:normal;font-weight:normal;line-height:125%;letter-spacing:0px;word-spacing:0px;fill:#000000;fill-opacity:1;stroke:none;font-family:Sans"
       x="345.74146"
       y="782.39691"
       id="text4021-97"
       sodipodi:linespacing="125%"
       transform="scale(1.0193842,0.98098439)"><tspan
         sodipodi:role="line"
         id="tspan4023-9"
         x="345.74146"
         y="782.39691">URL Fetcher</tspan></text>
    <text
       xml:space="preserve"
       style="font-size:21.26100349px;font-style:normal;font-weight:normal;line-height:125%;letter-spacing:0px;word-spacing:0px;fill:#000000;fill-opacity:1;stroke:none;font-family:Sans"
       x="377.2825"
       y="722.8194"
       id="text4021-4"
       sodipodi:linespacing="125%"
       transform="scale(1.0193842,0.98098439)"><tspan
         sodipodi:role="line"
         id="tspan4023-96"
         x="377.2825"
         y="722.8194">Parser</tspan></text>
    <text
       xml:space="preserve"
       style="font-size:21.26100349px;font-style:normal;font-weight:normal;line-height:125%;letter-spacing:0px;word-spacing:0px;fill:#000000;fill-opacity:1;stroke:none;font-family:Sans"
       x="254.62286"
       y="611.84161"
       id="text4021-8"
       sodipodi:linespacing="125%"
       transform="scale(1.0193842,0.98098439)"><tspan
         sodipodi:role="line"
         id="tspan4023-5"
         x="254.62286"
         y="611.84161">Locations Store</tspan><tspan
         sodipodi:role="line"
         x="254.62286"
         y="638.41785"
         id="tspan4176" /></text>
    <text
       xml:space="preserve"
       style="font-size:21.26100349px;font-style:normal;font-weight:normal;line-height:125%;letter-spacing:0px;word-spacing:0px;fill:#000000;fill-opacity:1;stroke:none;font-family:Sans"
       x="178.69072"
       y="538.24585"
       id="text4021-74"
       sodipodi:linespacing="125%"
       transform="scale(1.0193842,0.98098439)"><tspan
         sodipodi:role="line"
         id="tspan4023-6"
         x="178.69072"
         y="538.24585">CSV Reader</tspan></text>
    <text
       xml:space="preserve"
       style="font-size:21.26100349px;font-style:normal;font-weight:normal;line-height:125%;letter-spacing:0px;word-spacing:0px;fill:#000000;fill-opacity:1;stroke:none;font-family:Sans"
       x="376.11432"
       y="540.58221"
       id="text4021-5"
       sodipodi:linespacing="125%"
       transform="scale(1.0193842,0.98098439)"><tspan
         sodipodi:role="line"
         id="tspan4023-2"
         x="376.11432"
         y="540.58221">DB Reader</tspan></text>
    <text
       xml:space="preserve"
       style="font-size:21.26100349px;font-style:normal;font-weight:normal;line-height:125%;letter-spacing:0px;word-spacing:0px;fill:#000000;fill-opacity:1;stroke:none;font-family:Sans"
       x="560.68781"
       y="561.60962"
       id="text4021-0"
       sodipodi:linespacing="125%"
       transform="scale(1.0193842,0.98098439)"><tspan
         sodipodi:role="line"
         id="tspan4023-8"
         x="560.68781"
         y="561.60962">Selection </tspan><tspan
         sodipodi:role="line"
         x="560.68781"
         y="588.18585"
         id="tspan4178">     UI</tspan></text>
    <text
       xml:space="preserve"
       style="font-size:21.26100349px;font-style:normal;font-weight:normal;line-height:125%;letter-spacing:0px;word-spacing:0px;fill:#000000;fill-opacity:1;stroke:none;font-family:Sans"
       x="310.69586"
       y="471.65921"
       id="text4021-41"
       sodipodi:linespacing="125%"
       transform="scale(1.0193842,0.98098439)"><tspan
         sodipodi:role="line"
         id="tspan4023-55"
         x="310.69586"
         y="471.65921">Input Reader</tspan></text>
    <text
       xml:space="preserve"
       style="font-size:21.26100349px;font-style:normal;font-weight:normal;line-height:125%;letter-spacing:0px;word-spacing:0px;fill:#000000;fill-opacity:1;stroke:none;font-family:Sans"
       x="310.69583"
       y="419.09079"
       id="text4021-54"
       sodipodi:linespacing="125%"
       transform="scale(1.0193842,0.98098439)"><tspan
         sodipodi:role="line"
         id="tspan4023-62"
         x="310.69583"
         y="419.09079">Location Filter</tspan></text>
    <text
       xml:space="preserve"
       style="font-size:21.26100349px;font-style:normal;font-weight:normal;line-height:125%;letter-spacing:0px;word-spacing:0px;fill:#000000;fill-opacity:1;stroke:none;font-family:Sans"
       x="276.81842"
       y="363.01782"
       id="text4021-51"
       sodipodi:linespacing="125%"
       transform="scale(1.0193842,0.98098439)"><tspan
         sodipodi:role="line"
         id="tspan4023-0"
         x="276.81842"
         y="363.01782">Permutation Generator</tspan></text>
    <text
       xml:space="preserve"
       style="font-size:21.26100349px;font-style:normal;font-weight:normal;line-height:125%;letter-spacing:0px;word-spacing:0px;fill:#000000;fill-opacity:1;stroke:none;font-family:Sans"
       x="286.16391"
       y="306.94489"
       id="text4021-72"
       sodipodi:linespacing="125%"
       transform="scale(1.0193842,0.98098439)"><tspan
         sodipodi:role="line"
         id="tspan4023-1"
         x="286.16391"
         y="306.94489">Closest Pair Selector</tspan></text>
    <text
       xml:space="preserve"
       style="font-size:21.26100349px;font-style:normal;font-weight:normal;line-height:125%;letter-spacing:0px;word-spacing:0px;fill:#000000;fill-opacity:1;stroke:none;font-family:Sans"
       x="254.56183"
       y="248.53551"
       id="text4021-06"
       sodipodi:linespacing="125%"
       transform="scale(1.0193842,0.9809844)"><tspan
         sodipodi:role="line"
         id="tspan4023-4"
         x="254.56183"
         y="248.53551">Average Distance Calculator</tspan></text>
    <text
       xml:space="preserve"
       style="font-size:21.26100349px;font-style:normal;font-weight:normal;line-height:125%;letter-spacing:0px;word-spacing:0px;fill:#000000;fill-opacity:1;stroke:none;font-family:Sans"
       x="316.53677"
       y="188.95796"
       id="text4021-22"
       sodipodi:linespacing="125%"
       transform="scale(1.0193842,0.98098439)"><tspan
         sodipodi:role="line"
         id="tspan4023-29"
         x="316.53677"
         y="188.95796">Results Visualizer</tspan></text>
    <g
       id="g5456"
       transform="translate(-32.223356,9.164605)">
      <g
         transform="matrix(0.72906606,0,0,0.71186418,213.64686,264.47686)"
         id="g4498">
        <path
           sodipodi:type="star"
           style="fill:#b3b3b3;stroke:#000000;stroke-opacity:1"
           id="path4478"
           sodipodi:sides="12"
           sodipodi:cx="-214.28571"
           sodipodi:cy="388.07648"
           sodipodi:r1="79.859573"
           sodipodi:r2="70.606133"
           sodipodi:arg1="0.82335461"
           sodipodi:arg2="1.1309071"
           inkscape:flatsided="false"
           inkscape:rounded="0"
           inkscape:randomized="0"
           d="m -159.99999,446.64791 -24.21885,5.31291 -12.33977,13.98286 -23.6306,-7.5083 -17.67798,5.93962 -16.71055,-18.31768 -18.2794,-3.69513 -5.31291,-24.21885 -13.98286,-12.33977 7.50831,-23.6306 -5.93963,-17.67798 18.31768,-16.71055 3.69513,-18.27939 24.21885,-5.31292 12.33977,-13.98286 23.6306,7.50831 17.67798,-5.93963 16.71055,18.31769 18.2794,3.69512 5.31291,24.21886 13.98286,12.33976 -7.50831,23.6306 5.93963,17.67799 -18.31769,16.71054 z"
           transform="matrix(1.2392728,0,0,0.6246733,95.558452,132.08404)" />
      </g>
      <text
         sodipodi:linespacing="125%"
         id="text4480"
         y="526.07355"
         x="89.513672"
         style="font-size:18px;font-style:normal;font-weight:normal;text-align:center;line-height:125%;letter-spacing:0px;word-spacing:0px;text-anchor:middle;fill:#000000;fill-opacity:1;stroke:none;font-family:Sans"
         xml:space="preserve"><tspan
           style="font-size:18px;text-align:center;text-anchor:middle"
           y="526.07355"
           x="92.378906"
           id="tspan4482"
           sodipodi:role="line">Google Maps </tspan><tspan
           style="font-size:18px;text-align:center;text-anchor:middle"
           id="tspan4484"
           y="548.57355"
           x="89.513672"
           sodipodi:role="line">API</tspan></text>
    </g>
    <path
       style="fill:none;stroke:#000000;stroke-width:0;stroke-linecap:butt;stroke-linejoin:miter;stroke-miterlimit:4;stroke-opacity:1;stroke-dasharray:none;marker-start:url(#Arrow2Mend);marker-end:url(#Arrow1Lend)"
       d="M 59.502587,552.36003 389.73578,321.04765"
       id="path4633"
       inkscape:connector-type="polyline"
       inkscape:connector-curvature="0"
       inkscape:connection-end="#rect3936-6"
       inkscape:connection-end-point="d4" />
    <path
       style="fill:none;stroke:#000000;stroke-width:1.18566954px;stroke-linecap:butt;stroke-linejoin:miter;stroke-opacity:1;marker-start:url(#Arrow1Mend-9);marker-end:url(#Arrow1Lend-0)"
       d="M 227.53322,669.90646 90.43225,568.90247"
       id="path6257"
       inkscape:connector-type="polyline"
       inkscape:connector-curvature="0" />
    <path
       style="fill:none;stroke:#0026ff;stroke-width:1.5;stroke-miterlimit:4;stroke-opacity:1;stroke-dasharray:9,1.5;stroke-dashoffset:8.85000026"
       d="m 150.51273,783.87481 0,10 c 86.3765,-0.96558 172.81913,-1.86504 259.32789,-2.69838 l 0.046,60.5632 c 28.12463,-0.0202 56.20893,-0.0403 84.25288,-0.0605 -0.0145,-19.20745 -0.0291,-38.4149 -0.0437,-57.62235 l 41.38485,-0.0314 -0.12791,-168.82339 179.67082,-0.13634 c 0,-5e-5 0,-1.1e-4 0,-1.6e-4 -0.12076,-160.62533 -0.24152,-321.00913 -0.36228,-481.15141 -189.02655,0.14246 -377.76817,0.28493 -566.22487,0.42739 0.0855,113.59665 0.17106,227.02225 0.25659,340.27679 0,3e-5 0,6e-5 0,8e-5 127.71269,-0.0968 255.42539,-0.19352 383.13809,-0.29028 0.0197,25.56136 0.0393,51.16203 0.059,76.80203 0,3e-5 0,5e-5 0,8e-5 -126.50978,0.0946 -253.01957,0.19012 -379.52936,0.28646 -0.67344,75.87633 -1.28943,151.69573 -1.84797,227.45819 0.78832,-75.76042 1.5192,-151.4639 2.19263,-227.11045 126.70179,0.0963 253.40357,0.19183 380.10536,0.28646 0.0197,-26.21448 0.0393,-52.46827 0.059,-78.76139 -127.51918,-0.0968 -255.03835,-0.19352 -382.55753,-0.29028 0,-6e-5 0,-1.1e-4 0,-1.7e-4 0.0855,-112.34611 0.17106,-224.52116 0.25659,-336.52516 187.32005,0.14246 374.35517,0.28493 561.10537,0.42739 -0.12076,158.39238 -0.24152,316.54323 -0.36228,474.45256 0,6e-5 0,1.1e-4 0,1.7e-4 l -179.9435,-0.13634 c -0.0426,56.18914 -0.0853,112.37827 -0.12791,168.56741 l 0,1.6e-4 -41.44765,-0.0314 c -0.0146,19.17831 -0.0291,38.35663 -0.0437,57.53495 l 0,8e-5 c -25.15741,-0.0202 -50.27449,-0.0403 -75.35122,-0.0605 l 0.0459,-60.6551 c -87.91092,-0.83334 -175.88796,-1.7328 -263.93113,-2.69838 z"
       id="path6901"
       inkscape:path-effect="#path-effect6903"
       inkscape:original-d="m 150.51273,788.87481 261.62951,0 0,60.60915 79.80205,0 0,-57.57869 41.41625,0 0,-168.69548 179.80716,0 0,-477.80215 -563.66512,0 0,338.4011 382.84781,0 0,77.78175 -379.81736,0 z"
       inkscape:connector-curvature="0" />
    <g
       id="g6937">
      <g
         transform="matrix(0.6388273,0,0,0.6388273,280.68008,387.13144)"
         id="g4390">
        <g
           id="g4312"
           transform="translate(-31.428572,-25.714287)">
          <rect
             ry="2.106621"
             y="906.64789"
             x="428.57141"
             height="30"
             width="84.285713"
             id="rect4288"
             style="fill:#ac9393;stroke:#000000;stroke-opacity:1" />
          <text
             sodipodi:linespacing="125%"
             id="text4296"
             y="928.1134"
             x="521.23871"
             style="font-size:40px;font-style:normal;font-weight:normal;line-height:125%;letter-spacing:0px;word-spacing:0px;fill:#000000;fill-opacity:1;stroke:none;font-family:Sans"
             xml:space="preserve"><tspan
               style="font-size:22px"
               y="928.1134"
               x="521.23871"
               id="tspan4298"
               sodipodi:role="line">Input/Output</tspan></text>
        </g>
        <g
           id="g4375">
          <rect
             ry="2.106621"
             y="925.2193"
             x="397.14285"
             height="30"
             width="84.285713"
             id="rect4292"
             style="fill:#ffb380;stroke:#000000;stroke-opacity:1" />
          <text
             sodipodi:linespacing="125%"
             id="text4300"
             y="947.35089"
             x="488.29495"
             style="font-size:24px;font-style:normal;font-weight:normal;line-height:125%;letter-spacing:0px;word-spacing:0px;fill:#000000;fill-opacity:1;stroke:none;font-family:Sans"
             xml:space="preserve"><tspan
               y="947.35089"
               x="488.29495"
               id="tspan4302"
               sodipodi:role="line">Business Logic</tspan></text>
        </g>
        <g
           id="g4380">
          <rect
             style="fill:#b3b3b3;stroke:#000000;stroke-opacity:1"
             id="rect4290"
             width="84.285713"
             height="30"
             x="395.80096"
             y="967.39807"
             ry="2.106621" />
          <text
             sodipodi:linespacing="125%"
             id="text4304"
             y="988.76709"
             x="488.77969"
             style="font-size:40px;font-style:normal;font-weight:normal;line-height:125%;letter-spacing:0px;word-spacing:0px;fill:#000000;fill-opacity:1;stroke:none;font-family:Sans"
             xml:space="preserve"><tspan
               style="font-size:22px"
               y="988.76709"
               x="488.77969"
               id="tspan4306"
               sodipodi:role="line">External Component</tspan></text>
        </g>
        <g
           id="g4385">
          <rect
             style="fill:#ff8080;stroke:#000000;stroke-opacity:1"
             id="rect4294"
             width="84.285713"
             height="30"
             x="394.79077"
             y="1008.1484"
             ry="2.106621" />
          <text
             sodipodi:linespacing="125%"
             id="text4308"
             y="1029.6783"
             x="488.29495"
             style="font-size:40px;font-style:normal;font-weight:normal;line-height:125%;letter-spacing:0px;word-spacing:0px;fill:#000000;fill-opacity:1;stroke:none;font-family:Sans"
             xml:space="preserve"><tspan
               style="font-size:22px"
               y="1029.6783"
               x="488.29495"
               id="tspan4310"
               sodipodi:role="line">Base Data Gathering</tspan></text>
        </g>
      </g>
      <g
         transform="translate(234.35539,-31.314729)"
         id="g6932">
        <rect
           style="fill:none;stroke:#0026ff;stroke-width:1.667858;stroke-miterlimit:4;stroke-opacity:1;stroke-dasharray:10.00714822, 1.66785804;stroke-dashoffset:0"
           id="rect6905"
           width="155.54991"
           height="23.923515"
           x="300.01532"
           y="948.31647" />
        <text
           xml:space="preserve"
           style="font-size:16px;font-style:normal;font-weight:normal;line-height:125%;letter-spacing:0px;word-spacing:0px;fill:#000000;fill-opacity:1;stroke:none;font-family:Sans"
           x="308.09653"
           y="966.49921"
           id="text6928"
           sodipodi:linespacing="125%"><tspan
             sodipodi:role="line"
             id="tspan6930"
             x="308.09653"
             y="966.49921"
             style="font-size:16px">System Boundary</tspan></text>
      </g>
    </g>
    <path
       style="fill:none;stroke:#000000;stroke-width:1.3595922;stroke-linecap:butt;stroke-linejoin:miter;stroke-miterlimit:4;stroke-opacity:1;stroke-dasharray:none;marker-start:url(#Arrow1Mend);marker-mid:none;marker-end:url(#Arrow1Lend);display:inline"
       d="M 309.48785,188.78976 79.660396,501.20487"
       id="path5467-3"
       inkscape:connector-type="polyline"
       inkscape:connector-curvature="0"
       sodipodi:nodetypes="ccc" />
  </g>
</svg>
