Brands,No. of Locations,,Permutations,,,,,,,,
,,,Number,Size,,,,Size of each record,,200,chars
10,10,,"8,100",2,,,,,,0.0002,MB
10,25,,"54,000",11,,,,,,,
10,100,,"891,000",178,,,,,,,
10,500,,"22,455,000","4,491",,,,,,,
10,"1,000",,"89,910,000","17,982",,,,,,,
?,?,,?,?,,,,,,,
50,"1,000",,"2,447,550,000","489,510",,,,,,,
,,,,,,,,,,,
,,,,,,,,,,,
Brands,No. of Locations,,ClosestPair,,,,,,,,
,,,Number,Size,,,,,,,
10,10,,200,0,,,,,,,
10,25,,350,0,,,,,,,
10,100,,"1,100",0,,,,,,,
10,500,,"5,100",1,,,,,,,
10,"1,000",,"10,100",2,,,,,,,
?,?,,?,?,,,,,,,
50,"1,000",,"52,500",11,,,,,,,
